<svg width="17" height="16" viewBox="0 0 17 16" fill="none" xmlns="http://www.w3.org/2000/svg">
<path d="M9.94815 15.3333C8.87215 15.3333 8.03277 15.3233 7.43001 15.3034C6.82725 15.2834 6.36397 15.241 6.04018 15.1761C5.71638 15.1112 5.51214 15.0563 5.42745 15.0114C5.34277 14.9665 5.20578 14.8791 5.01648 14.7493C4.86704 14.6296 4.59555 14.5322 4.20201 14.4574C3.80847 14.3825 3.1534 14.3151 2.23681 14.2552C2.0774 14.2452 1.95287 14.1853 1.8632 14.0755C1.84327 14.0456 1.80342 13.9807 1.74364 13.8809C1.68387 13.781 1.59918 13.6138 1.48959 13.3792C1.37999 13.1446 1.27787 12.8876 1.18323 12.6081C1.08858 12.3286 1.00638 11.9792 0.936643 11.5599C0.866902 11.1406 0.832031 10.7164 0.832031 10.2871C0.832031 8.82964 1.07612 7.71159 1.56431 6.93294C1.66394 6.7832 1.80342 6.70833 1.98276 6.70833C2.81965 6.70833 3.73873 6.19922 4.74001 5.18099C5.74129 4.16276 6.60558 2.78016 7.33287 1.0332C7.3528 1.00326 7.38518 0.933377 7.43001 0.823568C7.47485 0.713759 7.50224 0.64388 7.51221 0.613932C7.52217 0.583984 7.54957 0.526584 7.5944 0.441732C7.63924 0.356879 7.67909 0.301975 7.71396 0.277018C7.74883 0.252062 7.79615 0.214627 7.85593 0.164714C7.91571 0.1148 7.97798 0.0823568 8.04274 0.0673828C8.10749 0.0524089 8.1872 0.0374349 8.28185 0.0224609C8.3765 0.00748698 8.4836 0 8.60315 0C8.78249 0 8.9668 0.0399306 9.1561 0.119792C9.3454 0.199653 9.51975 0.306966 9.67915 0.441732C9.83856 0.576497 9.96808 0.728733 10.0677 0.898438C10.257 1.2079 10.3666 1.65213 10.3965 2.23112C10.4264 2.81011 10.4089 3.34918 10.3442 3.84831C10.2794 4.34744 10.1922 4.82661 10.0827 5.28581C11.8561 5.27582 13.0616 5.27083 13.6992 5.27083C14.287 5.27083 14.7628 5.43056 15.1264 5.75C15.4901 6.06944 15.6769 6.48872 15.6868 7.00781C15.6968 7.44705 15.652 7.78147 15.5523 8.01107C15.7217 8.18077 15.8637 8.35796 15.9782 8.54264C16.0928 8.72732 16.1551 8.93446 16.1651 9.16406C16.175 9.63325 15.9459 10.1124 15.4776 10.6016C15.4876 10.6215 15.5075 10.6689 15.5374 10.7438C15.5673 10.8187 15.5897 10.8811 15.6046 10.931C15.6196 10.9809 15.632 11.0433 15.642 11.1182C15.652 11.193 15.6569 11.2654 15.6569 11.3353C15.637 11.8843 15.3182 12.3735 14.7005 12.8027C14.7503 13.1322 14.7453 13.4266 14.6855 13.6862C14.4464 14.7843 12.8673 15.3333 9.94815 15.3333ZM2.49087 13.2819C4.12479 13.4117 5.16094 13.6413 5.59932 13.9707C5.75872 14.0905 5.8982 14.1704 6.01776 14.2103C6.13732 14.2502 6.49598 14.2877 7.09376 14.3226C7.69154 14.3575 8.643 14.375 9.94815 14.375C10.3566 14.375 10.7278 14.365 11.0615 14.3451C11.3953 14.3251 11.7813 14.2901 12.2197 14.2402C12.6581 14.1903 13.0118 14.1005 13.2808 13.9707C13.5498 13.8409 13.7092 13.6762 13.759 13.4766C13.7988 13.2669 13.7042 13.0423 13.475 12.8027C13.4252 12.6829 13.4252 12.5607 13.475 12.4359C13.5249 12.3111 13.6046 12.2237 13.7142 12.1738H13.7291C13.7789 12.1539 13.8387 12.1289 13.9084 12.099C13.9782 12.069 14.0803 12.0141 14.2148 11.9342C14.3493 11.8544 14.4614 11.7571 14.5511 11.6423C14.6407 11.5275 14.6905 11.4151 14.7005 11.3053C14.7005 11.2654 14.698 11.228 14.693 11.193C14.688 11.1581 14.6831 11.1257 14.6781 11.0957C14.6731 11.0658 14.6631 11.0358 14.6482 11.0059L14.6108 10.931L14.5735 10.8711L14.5361 10.8187L14.5062 10.7812L14.4838 10.7513L14.4763 10.7363C14.4365 10.6864 14.4116 10.6315 14.4016 10.5716C14.3916 10.5117 14.3916 10.4518 14.4016 10.3919C14.4116 10.332 14.434 10.2746 14.4689 10.2197C14.5037 10.1648 14.5461 10.1174 14.5959 10.0775C14.6557 10.0475 14.7204 10.0051 14.7902 9.9502C14.8599 9.89529 14.9471 9.79297 15.0517 9.64323C15.1563 9.49349 15.2086 9.34375 15.2086 9.19401C15.1986 8.94444 15.0093 8.70985 14.6407 8.49023C14.5809 8.4503 14.5311 8.40289 14.4913 8.34798C14.4514 8.29308 14.4215 8.23069 14.4016 8.16081C14.3916 8.12088 14.3892 8.07845 14.3941 8.03353C14.3991 7.98861 14.4091 7.94368 14.424 7.89876C14.439 7.85384 14.4614 7.81141 14.4913 7.77148C14.5012 7.7615 14.5112 7.74902 14.5212 7.73405C14.5311 7.71908 14.5511 7.68164 14.5809 7.62174C14.6108 7.56185 14.6357 7.50445 14.6557 7.44954C14.6756 7.39464 14.693 7.32726 14.708 7.2474C14.7229 7.16753 14.7304 7.09266 14.7304 7.02279C14.7204 6.8431 14.6731 6.69336 14.5884 6.57357C14.5037 6.45378 14.3941 6.37142 14.2596 6.3265C14.1251 6.28158 14.018 6.25412 13.9383 6.24414C13.8586 6.23416 13.7789 6.22917 13.6992 6.22917H10.2022L9.39521 6.24414C9.35536 6.24414 9.31551 6.23915 9.27565 6.22917C9.2358 6.21918 9.19844 6.20421 9.16357 6.18424C9.1287 6.16428 9.09632 6.14182 9.06643 6.11686C9.03654 6.09191 9.01163 6.05946 8.99171 6.01953C8.90204 5.88976 8.8871 5.74002 8.94688 5.57031C9.10628 5.11111 9.23331 4.60699 9.32796 4.05794C9.42261 3.5089 9.46744 2.98481 9.46246 2.48568C9.45748 1.98655 9.38525 1.62218 9.24576 1.39258C9.2358 1.37261 9.21588 1.33767 9.18599 1.28776C9.1561 1.23785 9.13617 1.20291 9.12621 1.18294C9.11625 1.16298 9.09383 1.13553 9.05896 1.10059C9.02409 1.06565 8.98922 1.04069 8.95435 1.02572C8.91948 1.01074 8.87215 0.995768 8.81238 0.980794C8.7526 0.96582 8.68286 0.958333 8.60315 0.958333C8.57326 0.958333 8.54338 0.968316 8.51349 0.988281C8.4836 1.00825 8.43876 1.05317 8.37899 1.12305C8.31921 1.19293 8.26441 1.28776 8.2146 1.40755C7.44745 3.26432 6.52089 4.74425 5.43493 5.84733C4.34896 6.95041 3.29787 7.55187 2.28164 7.65169C2.20194 7.83138 2.1322 8.01107 2.07242 8.19075C2.01264 8.37044 1.95038 8.65495 1.88562 9.04427C1.82086 9.43359 1.78848 9.84787 1.78848 10.2871C1.78848 10.7363 1.83331 11.1831 1.92298 11.6273C2.01264 12.0715 2.1048 12.4209 2.19945 12.6755C2.2941 12.93 2.39124 13.1322 2.49087 13.2819Z" fill="#65A84E"/>
</svg>
