<svg width="17" height="16" viewBox="0 0 17 16" fill="none" xmlns="http://www.w3.org/2000/svg">
<path d="M9.94815 -0.000325203C8.87215 -0.000325203 8.03277 0.00965786 7.43001 0.029623C6.82725 0.0495882 6.36397 0.0920143 6.04018 0.156901C5.71638 0.221788 5.51214 0.276693 5.42745 0.321615C5.34277 0.366537 5.20578 0.453885 5.01648 0.583659C4.86704 0.703451 4.59555 0.800781 4.20201 0.875651C3.80847 0.950521 3.1534 1.0179 2.23681 1.0778C2.0774 1.08778 1.95287 1.14768 1.8632 1.25749C1.84327 1.28744 1.80342 1.35232 1.74364 1.45215C1.68387 1.55198 1.59918 1.71918 1.48959 1.95378C1.37999 2.18837 1.27787 2.44542 1.18323 2.72494C1.08858 3.00445 1.00638 3.35384 0.936643 3.77311C0.866902 4.19238 0.832031 4.61664 0.832031 5.0459C0.832031 6.50336 1.07612 7.62142 1.56431 8.40007C1.66394 8.5498 1.80342 8.62467 1.98276 8.62467C2.81965 8.62467 3.73873 9.13379 4.74001 10.152C5.74129 11.1702 6.60558 12.5528 7.33287 14.2998C7.3528 14.3298 7.38518 14.3996 7.43001 14.5094C7.47485 14.6192 7.50224 14.6891 7.51221 14.7191C7.52217 14.749 7.54957 14.8064 7.5944 14.8913C7.63924 14.9761 7.67909 15.031 7.71396 15.056C7.74883 15.0809 7.79615 15.1184 7.85593 15.1683C7.91571 15.2182 7.97798 15.2507 8.04274 15.2656C8.10749 15.2806 8.1872 15.2956 8.28185 15.3105C8.3765 15.3255 8.4836 15.333 8.60315 15.333C8.78249 15.333 8.9668 15.2931 9.1561 15.2132C9.3454 15.1334 9.51975 15.026 9.67915 14.8913C9.83856 14.7565 9.96808 14.6043 10.0677 14.4346C10.257 14.1251 10.3666 13.6809 10.3965 13.1019C10.4264 12.5229 10.4089 11.9838 10.3442 11.4847C10.2794 10.9856 10.1922 10.5064 10.0827 10.0472C11.8561 10.0572 13.0616 10.0622 13.6992 10.0622C14.287 10.0622 14.7628 9.90245 15.1264 9.58301C15.4901 9.26356 15.6769 8.84429 15.6868 8.3252C15.6968 7.88596 15.652 7.55154 15.5523 7.32194C15.7217 7.15224 15.8637 6.97504 15.9782 6.79037C16.0928 6.60569 16.1551 6.39855 16.1651 6.16895C16.175 5.69976 15.9459 5.22059 15.4776 4.73145C15.4876 4.71148 15.5075 4.66406 15.5374 4.58919C15.5673 4.51432 15.5897 4.45193 15.6046 4.40202C15.6196 4.35211 15.632 4.28971 15.642 4.21484C15.652 4.13997 15.6569 4.0676 15.6569 3.99772C15.637 3.44868 15.3182 2.95953 14.7005 2.53027C14.7503 2.20085 14.7453 1.90636 14.6855 1.64681C14.4464 0.54872 12.8673 -0.000325203 9.94815 -0.000325203ZM2.49087 2.05111C4.12479 1.92133 5.16094 1.69173 5.59932 1.3623C5.75872 1.24251 5.8982 1.16265 6.01776 1.12272C6.13732 1.08279 6.49598 1.04536 7.09376 1.01042C7.69154 0.975478 8.643 0.958008 9.94815 0.958008C10.3566 0.958008 10.7278 0.967991 11.0615 0.987956C11.3953 1.00792 11.7813 1.04286 12.2197 1.09277C12.6581 1.14269 13.0118 1.23253 13.2808 1.3623C13.5498 1.49208 13.7092 1.65679 13.759 1.85645C13.7988 2.06608 13.7042 2.29069 13.475 2.53027C13.4252 2.65007 13.4252 2.77235 13.475 2.89714C13.5249 3.02192 13.6046 3.10927 13.7142 3.15918H13.7291C13.7789 3.17914 13.8387 3.2041 13.9084 3.23405C13.9782 3.264 14.0803 3.3189 14.2148 3.39876C14.3493 3.47862 14.4614 3.57596 14.5511 3.69076C14.6407 3.80556 14.6905 3.91786 14.7005 4.02767C14.7005 4.0676 14.698 4.10503 14.693 4.13997C14.688 4.17491 14.6831 4.20736 14.6781 4.2373C14.6731 4.26725 14.6631 4.2972 14.6482 4.32715L14.6108 4.40202L14.5735 4.46191L14.5361 4.51432L14.5062 4.55176L14.4838 4.58171L14.4763 4.59668C14.4365 4.64659 14.4116 4.7015 14.4016 4.76139C14.3916 4.82129 14.3916 4.88119 14.4016 4.94108C14.4116 5.00098 14.434 5.05838 14.4689 5.11328C14.5037 5.16819 14.5461 5.2156 14.5959 5.25553C14.6557 5.28548 14.7204 5.32791 14.7902 5.38281C14.8599 5.43772 14.9471 5.54004 15.0517 5.68978C15.1563 5.83952 15.2086 5.98926 15.2086 6.139C15.1986 6.38856 15.0093 6.62316 14.6407 6.84277C14.5809 6.8827 14.5311 6.93012 14.4913 6.98503C14.4514 7.03993 14.4215 7.10232 14.4016 7.1722C14.3916 7.21213 14.3892 7.25456 14.3941 7.29948C14.3991 7.3444 14.4091 7.38932 14.424 7.43425C14.439 7.47917 14.4614 7.52159 14.4913 7.56152C14.5012 7.57151 14.5112 7.58398 14.5212 7.59896C14.5311 7.61393 14.5511 7.65137 14.5809 7.71126C14.6108 7.77116 14.6357 7.82856 14.6557 7.88346C14.6756 7.93837 14.693 8.00575 14.708 8.08561C14.7229 8.16547 14.7304 8.24034 14.7304 8.31022C14.7204 8.48991 14.6731 8.63965 14.5884 8.75944C14.5037 8.87923 14.3941 8.96159 14.2596 9.00651C14.1251 9.05143 14.018 9.07888 13.9383 9.08887C13.8586 9.09885 13.7789 9.10384 13.6992 9.10384H10.2022L9.39521 9.08887C9.35536 9.08887 9.31551 9.09386 9.27565 9.10384C9.2358 9.11382 9.19844 9.1288 9.16357 9.14876C9.1287 9.16873 9.09632 9.19119 9.06643 9.21615C9.03654 9.2411 9.01163 9.27355 8.99171 9.31348C8.90204 9.44325 8.8871 9.59299 8.94688 9.7627C9.10628 10.2219 9.23331 10.726 9.32796 11.2751C9.42261 11.8241 9.46744 12.3482 9.46246 12.8473C9.45748 13.3465 9.38525 13.7108 9.24576 13.9404C9.2358 13.9604 9.21588 13.9953 9.18599 14.0452C9.1561 14.0952 9.13617 14.1301 9.12621 14.1501C9.11625 14.17 9.09383 14.1975 9.05896 14.2324C9.02409 14.2674 8.98922 14.2923 8.95435 14.3073C8.91948 14.3223 8.87215 14.3372 8.81238 14.3522C8.7526 14.3672 8.68286 14.3747 8.60315 14.3747C8.57326 14.3747 8.54338 14.3647 8.51349 14.3447C8.4836 14.3248 8.43876 14.2798 8.37899 14.21C8.31921 14.1401 8.26441 14.0452 8.2146 13.9255C7.44745 12.0687 6.52089 10.5888 5.43493 9.48568C4.34896 8.3826 3.29787 7.78114 2.28164 7.68132C2.20194 7.50163 2.1322 7.32194 2.07242 7.14225C2.01264 6.96257 1.95038 6.67806 1.88562 6.28874C1.82086 5.89941 1.78848 5.48514 1.78848 5.0459C1.78848 4.59668 1.83331 4.14996 1.92298 3.70573C2.01264 3.2615 2.1048 2.91211 2.19945 2.65755C2.2941 2.403 2.39124 2.20085 2.49087 2.05111Z" fill="#ED5E42"/>
</svg>
