<svg width="24" height="24" viewBox="0 0 24 24" fill="none" xmlns="http://www.w3.org/2000/svg">
<path d="M1 15C0.447715 15 0 15.4477 0 16V18C0 20.2091 1.79086 22 4 22H20C22.2091 22 24 20.2091 24 18V16C24 15.4477 23.5523 15 23 15C22.4477 15 22 15.4477 22 16V18C22 19.1046 21.1046 20 20 20H4C2.89543 20 2 19.1046 2 18V16C2 15.4477 1.55228 15 1 15Z"/>
<path fill-rule="evenodd" clip-rule="evenodd" d="M19.0704 9.34315L12.7064 15.7071C12.3159 16.0976 11.6827 16.0976 11.2922 15.7071L4.92825 9.34315C4.53773 8.95262 4.53773 8.31946 4.92825 7.92893C5.31878 7.53841 5.95194 7.53841 6.34247 7.92893L10.9993 12.5858L10.9993 3C10.9993 2.44771 11.447 2 11.9993 2C12.5516 2 12.9993 2.44772 12.9993 3L12.9993 12.5858L17.6562 7.92893C18.0467 7.53841 18.6799 7.53841 19.0704 7.92893C19.4609 8.31946 19.4609 8.95262 19.0704 9.34315Z"/>
</svg>
