<svg width="74" height="74" viewBox="0 0 74 74" fill="none" xmlns="http://www.w3.org/2000/svg">
<circle cx="37" cy="37" r="35" stroke="#F2994A" stroke-width="3"/>
<path d="M34.5654 44.5C34.5654 43.1333 34.7821 41.9333 35.2154 40.9C35.6821 39.8667 36.2488 38.9833 36.9154 38.25C37.5821 37.5167 38.4488 36.6833 39.5154 35.75C40.9488 34.4833 41.9988 33.3833 42.6654 32.45C43.3654 31.4833 43.7154 30.3167 43.7154 28.95C43.7154 27.1167 42.9988 25.65 41.5654 24.55C40.1321 23.4167 38.1654 22.85 35.6654 22.85C31.5321 22.85 28.3488 24.2 26.1154 26.9L23.4654 24.9C26.2988 21.4333 30.4488 19.7 35.9154 19.7C39.4154 19.7 42.1988 20.4833 44.2654 22.05C46.3654 23.6167 47.4154 25.7333 47.4154 28.4C47.4154 29.7667 47.1821 30.9833 46.7154 32.05C46.2821 33.0833 45.7321 33.9667 45.0654 34.7C44.4321 35.4333 43.5821 36.2833 42.5154 37.25C41.0821 38.55 40.0154 39.7167 39.3154 40.75C38.6154 41.75 38.2654 43 38.2654 44.5H34.5654ZM36.4154 55.25C35.6821 55.25 35.0654 55 34.5654 54.5C34.0654 53.9667 33.8154 53.35 33.8154 52.65C33.8154 51.9167 34.0654 51.3167 34.5654 50.85C35.0654 50.35 35.6821 50.1 36.4154 50.1C37.1821 50.1 37.8154 50.35 38.3154 50.85C38.8154 51.3167 39.0654 51.9167 39.0654 52.65C39.0654 53.35 38.7988 53.9667 38.2654 54.5C37.7654 55 37.1488 55.25 36.4154 55.25Z" fill="#F2994A"/>
<path d="M34.5654 44.5H33.5654V45.5H34.5654V44.5ZM35.2154 40.9L34.3041 40.4884L34.2985 40.5008L34.2932 40.5133L35.2154 40.9ZM36.9154 38.25L36.1755 37.5773L36.1755 37.5773L36.9154 38.25ZM39.5154 35.75L40.1739 36.5026L40.1776 36.4993L39.5154 35.75ZM42.6654 32.45L41.8555 31.8635L41.8517 31.8688L42.6654 32.45ZM41.5654 24.55L40.9452 25.3344L40.9509 25.3389L40.9566 25.3433L41.5654 24.55ZM26.1154 26.9L25.513 27.6982L26.2764 28.2743L26.886 27.5374L26.1154 26.9ZM23.4654 24.9L22.6911 24.2672L22.0333 25.072L22.863 25.6982L23.4654 24.9ZM44.2654 22.05L43.6613 22.8469L43.6675 22.8515L44.2654 22.05ZM46.7154 32.05L45.7993 31.6492L45.7962 31.6562L45.7932 31.6633L46.7154 32.05ZM45.0654 34.7L44.3255 34.0273L44.3169 34.0367L44.3086 34.0464L45.0654 34.7ZM42.5154 37.25L41.8439 36.509L41.8436 36.5093L42.5154 37.25ZM39.3154 40.75L40.1347 41.3235L40.1391 41.3172L40.1433 41.3108L39.3154 40.75ZM38.2654 44.5V45.5H39.2654V44.5H38.2654ZM34.5654 54.5L33.8359 55.1839L33.8469 55.1957L33.8583 55.2071L34.5654 54.5ZM34.5654 50.85L35.2477 51.5811L35.2603 51.5693L35.2725 51.5571L34.5654 50.85ZM38.3154 50.85L37.6083 51.5571L37.6205 51.5693L37.6331 51.5811L38.3154 50.85ZM38.2654 54.5L38.9725 55.2071L38.9725 55.2071L38.2654 54.5ZM35.5654 44.5C35.5654 43.2377 35.7656 42.1739 36.1376 41.2867L34.2932 40.5133C33.7986 41.6928 33.5654 43.029 33.5654 44.5H35.5654ZM36.1268 41.3116C36.5565 40.3602 37.0685 39.5682 37.6554 38.9227L36.1755 37.5773C35.429 38.3984 34.8077 39.3731 34.3041 40.4884L36.1268 41.3116ZM37.6554 38.9227C38.2882 38.2266 39.1248 37.4205 40.1739 36.5026L38.8569 34.9974C37.7727 35.9461 36.876 36.8067 36.1755 37.5773L37.6554 38.9227ZM40.1776 36.4993C41.6354 35.211 42.7491 34.0534 43.4792 33.0312L41.8517 31.8688C41.2485 32.7133 40.2621 33.7556 38.8532 35.0007L40.1776 36.4993ZM43.4754 33.0365C44.3163 31.8752 44.7154 30.4956 44.7154 28.95H42.7154C42.7154 30.1378 42.4145 31.0915 41.8555 31.8635L43.4754 33.0365ZM44.7154 28.95C44.7154 26.8112 43.8584 25.0492 42.1743 23.7567L40.9566 25.3433C42.1391 26.2508 42.7154 27.4222 42.7154 28.95H44.7154ZM42.1857 23.7656C40.5206 22.4491 38.3085 21.85 35.6654 21.85V23.85C38.0224 23.85 39.7436 24.3843 40.9452 25.3344L42.1857 23.7656ZM35.6654 21.85C31.2935 21.85 27.8031 23.2908 25.3449 26.2626L26.886 27.5374C28.8944 25.1092 31.7707 23.85 35.6654 23.85V21.85ZM26.7178 26.1018L24.0678 24.1018L22.863 25.6982L25.513 27.6982L26.7178 26.1018ZM24.2397 25.5328C26.8413 22.3497 30.6759 20.7 35.9154 20.7V18.7C30.2217 18.7 25.7562 20.5169 22.6911 24.2672L24.2397 25.5328ZM35.9154 20.7C39.2728 20.7 41.8203 21.4513 43.6613 22.8469L44.8695 21.2531C42.5772 19.5154 39.5581 18.7 35.9154 18.7V20.7ZM43.6675 22.8515C45.5092 24.2255 46.4154 26.0424 46.4154 28.4H48.4154C48.4154 25.4243 47.2217 23.0078 44.8634 21.2485L43.6675 22.8515ZM46.4154 28.4C46.4154 29.6524 46.2019 30.7289 45.7993 31.6492L47.6316 32.4508C48.1623 31.2377 48.4154 29.8809 48.4154 28.4H46.4154ZM45.7932 31.6633C45.3982 32.6052 44.9063 33.3885 44.3255 34.0273L45.8054 35.3727C46.5579 34.5449 47.1659 33.5615 47.6376 32.4367L45.7932 31.6633ZM44.3086 34.0464C43.7113 34.738 42.8934 35.5579 41.8439 36.509L43.187 37.991C44.2708 37.0087 45.1529 36.1287 45.8223 35.3536L44.3086 34.0464ZM41.8436 36.5093C40.3798 37.8369 39.2496 39.0642 38.4875 40.1892L40.1433 41.3108C40.7813 40.3691 41.7844 39.2631 43.1872 37.9907L41.8436 36.5093ZM38.4962 40.1765C37.6539 41.3798 37.2654 42.8424 37.2654 44.5H39.2654C39.2654 43.1576 39.5769 42.1202 40.1347 41.3235L38.4962 40.1765ZM38.2654 43.5H34.5654V45.5H38.2654V43.5ZM36.4154 54.25C35.9363 54.25 35.5774 54.0977 35.2725 53.7929L33.8583 55.2071C34.5535 55.9023 35.4279 56.25 36.4154 56.25V54.25ZM35.295 53.8161C34.9602 53.459 34.8154 53.0838 34.8154 52.65H32.8154C32.8154 53.6162 33.1706 54.4743 33.8359 55.1839L35.295 53.8161ZM34.8154 52.65C34.8154 52.1715 34.9662 51.8438 35.2477 51.5811L33.8831 50.1189C33.1647 50.7895 32.8154 51.6619 32.8154 52.65H34.8154ZM35.2725 51.5571C35.5774 51.2523 35.9363 51.1 36.4154 51.1V49.1C35.4279 49.1 34.5535 49.4477 33.8583 50.1429L35.2725 51.5571ZM36.4154 51.1C36.9415 51.1 37.3126 51.2614 37.6083 51.5571L39.0225 50.1429C38.3183 49.4386 37.4227 49.1 36.4154 49.1V51.1ZM37.6331 51.5811C37.9147 51.8438 38.0654 52.1715 38.0654 52.65H40.0654C40.0654 51.6619 39.7162 50.7895 38.9977 50.1189L37.6331 51.5811ZM38.0654 52.65C38.0654 53.0629 37.9202 53.431 37.5583 53.7929L38.9725 55.2071C39.6773 54.5023 40.0654 53.6371 40.0654 52.65H38.0654ZM37.5583 53.7929C37.2535 54.0977 36.8945 54.25 36.4154 54.25V56.25C37.403 56.25 38.2774 55.9023 38.9725 55.2071L37.5583 53.7929Z" fill="#F2994A"/>
</svg>
