<svg width="20" height="20" viewBox="0 0 20 20" fill="none" xmlns="http://www.w3.org/2000/svg">
<rect width="9" height="9"/>
<rect x="11" width="9" height="9"/>
<rect y="11" width="9" height="9"/>
<rect x="11" y="11" width="9" height="9"/>
</svg>
