<svg width="24" height="24" viewBox="0 0 24 24" fill="transparent" xmlns="http://www.w3.org/2000/svg">
<path fill-rule="evenodd" clip-rule="evenodd" d="M6 3V20H8V22H4V1H20V10H18V3H6ZM17 15.5C17 17.433 15.433 19 13.5 19C11.567 19 10 17.433 10 15.5C10 13.567 11.567 12 13.5 12C15.433 12 17 13.567 17 15.5ZM19 15.5C19 16.6575 18.6425 17.7314 18.0318 18.6174L21.2847 21.8703L19.8705 23.2845L16.6176 20.0317C15.7316 20.6424 14.6575 21 13.5 21C10.4624 21 8 18.5376 8 15.5C8 12.4624 10.4624 10 13.5 10C16.5376 10 19 12.4624 19 15.5ZM7 5V4H17V5H7ZM7 7V8H17V7H7ZM7 11V10H9V11H7Z"/>
</svg>
