<svg width="137" height="27" viewBox="0 0 137 27" fill="none" xmlns="http://www.w3.org/2000/svg">
<path fill-rule="evenodd" clip-rule="evenodd" d="M25.2028 15.0139C25.2667 14.4372 25.2987 13.9726 25.2987 13.6201C25.2987 11.057 24.7556 8.78219 23.6696 6.79575C22.6155 4.8093 21.1301 3.27141 19.2136 2.18207C17.3289 1.06069 15.1728 0.5 12.7452 0.5C10.3175 0.5 8.12943 1.06069 6.18092 2.18207C4.26436 3.27141 2.74708 4.8093 1.62908 6.79575C0.543027 8.78219 0 11.0089 0 13.476C0 15.975 0.558998 18.2178 1.677 20.2042C2.82693 22.1907 4.44004 23.7446 6.51632 24.866C8.5926 25.9553 10.9723 26.5 13.6555 26.5C15.7638 26.5 17.6643 26.1476 19.3573 25.4427C21.0822 24.7378 22.5196 23.7126 23.6696 22.3669L21.1301 19.3872C19.2775 21.4378 16.8338 22.463 13.7993 22.463C11.3077 22.463 9.21549 21.7902 7.52252 20.4445C5.8615 19.0669 4.88724 17.2566 4.59976 15.0139H25.2028ZM7.18712 6.41127C8.68843 5.06562 10.5411 4.39279 12.7452 4.39279C14.9492 4.39279 16.7859 5.08164 18.2553 6.45933C19.7566 7.80499 20.635 9.55114 20.8906 11.6978H4.59976C4.8553 9.5191 5.71775 7.75693 7.18712 6.41127Z" fill="black"/>
<path d="M63.5342 25.683C65.4507 26.2277 67.4471 26.5 69.5234 26.5C72.9094 26.5 75.5766 25.8272 77.5251 24.4815C79.5055 23.1038 80.4958 21.2616 80.4958 18.9547C80.4958 17.2246 80.0486 15.8789 79.1542 14.9177C78.2598 13.9566 77.1737 13.2837 75.896 12.8993C74.6502 12.4827 73.0052 12.0983 70.9608 11.7458C69.4276 11.4575 68.2297 11.2012 67.3673 10.9769C66.5368 10.7526 65.834 10.4002 65.2591 9.91959C64.6841 9.439 64.3966 8.78219 64.3966 7.94917C64.3966 6.89187 64.9077 6.04282 65.9299 5.40203C66.952 4.76124 68.4374 4.44085 70.3859 4.44085C73.1968 4.44085 75.6405 5.11368 77.7167 6.45933L79.6812 2.80684C78.5952 2.10197 77.2057 1.54128 75.5127 1.12477C73.8197 0.708256 72.1268 0.5 70.4338 0.5C67.2076 0.5 64.6362 1.20487 62.7196 2.6146C60.803 3.9923 59.8448 5.83457 59.8448 8.1414C59.8448 9.93561 60.3079 11.3293 61.2343 12.3226C62.1606 13.3158 63.2626 14.0206 64.5403 14.4372C65.85 14.8537 67.527 15.2221 69.5713 15.5425C71.0726 15.7988 72.2226 16.0391 73.0211 16.2634C73.8517 16.4556 74.5384 16.776 75.0815 17.2246C75.6245 17.6731 75.896 18.2819 75.896 19.0508C75.896 21.3577 73.8836 22.5111 69.8588 22.5111C68.2297 22.5111 66.6166 22.2708 65.0195 21.7902C63.4224 21.3096 62.0648 20.6688 60.9468 19.8678L59.0302 23.5203C60.1163 24.3854 61.6176 25.1063 63.5342 25.683Z" fill="black"/>
<path fill-rule="evenodd" clip-rule="evenodd" d="M109.099 15.0139C109.163 14.4372 109.195 13.9726 109.195 13.6201C109.195 11.057 108.652 8.78219 107.566 6.79575C106.512 4.8093 105.027 3.27141 103.11 2.18207C101.225 1.06069 99.0693 0.5 96.6417 0.5C94.214 0.5 92.026 1.06069 90.0775 2.18207C88.1609 3.27141 86.6436 4.8093 85.5256 6.79575C84.4396 8.78219 83.8965 11.0089 83.8965 13.476C83.8965 15.975 84.4555 18.2178 85.5735 20.2042C86.7235 22.1907 88.3366 23.7446 90.4129 24.866C92.4891 25.9553 94.8689 26.5 97.5521 26.5C99.6603 26.5 101.561 26.1476 103.254 25.4427C104.979 24.7378 106.416 23.7126 107.566 22.3669L105.027 19.3872C103.174 21.4378 100.73 22.463 97.6958 22.463C95.2043 22.463 93.112 21.7902 91.4191 20.4445C89.758 19.0669 88.7838 17.2566 88.4963 15.0139H109.099ZM91.0837 6.41127C92.585 5.06562 94.4377 4.39279 96.6417 4.39279C98.8458 4.39279 100.682 5.08164 102.152 6.45933C103.653 7.80499 104.532 9.55114 104.787 11.6978H88.4963C88.7518 9.5191 89.6143 7.75693 91.0837 6.41127Z" fill="black"/>
<path d="M119.703 24.8179C121.747 25.9393 124.063 26.5 126.651 26.5C128.95 26.5 130.995 26.0354 132.784 25.1063C134.604 24.1451 136.01 22.7834 137 21.0213L133.502 18.8105C132.704 20.028 131.713 20.9412 130.532 21.5499C129.35 22.1587 128.04 22.463 126.603 22.463C124.942 22.463 123.44 22.0946 122.099 21.3577C120.789 20.6208 119.751 19.5795 118.984 18.2338C118.25 16.8561 117.882 15.2702 117.882 13.476C117.882 11.7138 118.25 10.1599 118.984 8.81423C119.751 7.43654 120.789 6.37924 122.099 5.64233C123.44 4.90542 124.942 4.53697 126.603 4.53697C128.04 4.53697 129.35 4.84134 130.532 5.45009C131.713 6.05884 132.704 6.97196 133.502 8.18946L137 5.93068C136.01 4.16851 134.604 2.82286 132.784 1.89371C130.995 0.964571 128.95 0.5 126.651 0.5C124.063 0.5 121.747 1.06069 119.703 2.18207C117.691 3.27141 116.109 4.8093 114.959 6.79575C113.81 8.75015 113.235 10.9769 113.235 13.476C113.235 15.975 113.81 18.2178 114.959 20.2042C116.109 22.1587 117.691 23.6965 119.703 24.8179Z" fill="black"/>
<path fill-rule="evenodd" clip-rule="evenodd" d="M37.241 8.70495C39.0176 7.884 40.8944 7.4552 42.7051 7.44739C44.6742 7.47609 46.5126 7.92333 48.1685 8.70491C49.5906 9.40864 50.8433 10.2784 51.8898 11.3402C52.4041 11.9059 53.2366 12.8379 53.25 13.5929C53.1369 14.4645 52.4379 15.2814 51.8898 15.8455C50.7738 16.9507 49.4876 17.8468 48.1685 18.4814C46.3938 19.2973 44.5174 19.7311 42.7051 19.739C40.7316 19.714 38.8978 19.2636 37.241 18.4814C35.8189 17.7777 34.5668 16.9073 33.5203 15.8455C33.006 15.2797 32.1735 14.3479 32.1602 13.5929C32.2732 12.7213 32.9723 11.9044 33.5203 11.3402C34.6363 10.235 35.9218 9.3396 37.241 8.70495ZM47.6717 13.5935C47.6717 11.0418 45.4475 8.97321 42.7037 8.97321C39.96 8.97321 37.7358 11.0418 37.7358 13.5935C37.7358 16.1453 39.96 18.2138 42.7037 18.2138C45.4475 18.2138 47.6717 16.1453 47.6717 13.5935Z" fill="#F2994A"/>
<path fill-rule="evenodd" clip-rule="evenodd" d="M42.7064 16.5325C44.4536 16.5325 45.8699 15.2166 45.8699 13.5932C45.8699 11.9699 44.4536 10.6539 42.7064 10.6539C40.9593 10.6539 39.543 11.9699 39.543 13.5932C39.543 15.2166 40.9593 16.5325 42.7064 16.5325ZM41.8284 11.8423C41.8955 11.9767 41.898 12.1264 41.8476 12.2561C41.8032 12.3701 41.7179 12.4686 41.6 12.5277C41.4309 12.6123 41.2977 12.7472 41.2034 12.9161C41.1233 13.0598 41.071 13.2282 41.0483 13.4113C40.9952 13.8355 41.1196 14.1616 41.2219 14.2638C41.4214 14.4631 41.4214 14.7867 41.2219 14.9862C41.1288 15.0793 41.0089 15.1289 40.8872 15.1351C40.7477 15.1424 40.6061 15.0927 40.4996 14.9862C40.0908 14.5776 39.9599 13.8819 40.0344 13.2845C40.1122 12.6614 40.4342 11.9682 41.1431 11.6138C41.3955 11.4876 41.7022 11.5899 41.8284 11.8423ZM44.5879 15.0423C43.9866 15.6752 43.1608 15.8667 42.7435 15.4701C42.326 15.0735 42.4749 14.2389 43.0762 13.6061C43.6775 12.973 44.5033 12.7814 44.9206 13.178C45.3381 13.5746 45.1892 14.4093 44.5879 15.0423Z" fill="black"/>
</svg>
