<svg width="13" height="12" viewBox="0 0 13 12" fill="none" xmlns="http://www.w3.org/2000/svg">
<path d="M6.46739 0L8.74825 3.32805L12.6182 4.46886L10.1579 7.66651L10.2688 11.6996L6.46739 10.3478L2.66595 11.6996L2.77688 7.66651L0.316537 4.46886L4.18653 3.32805L6.46739 0Z" fill="#F2994A"/>
</svg>
